<svg width="16" height="16" viewBox="0 0 16 16" fill="none" xmlns="http://www.w3.org/2000/svg">
    <g clip-path="url(#clip0_69_8048)">
        <path d="M1.88226 10.9663C1.88226 12.1953 2.87846 13.1957 4.10572 13.2028C3.61748 13.4433 3.28073 13.9459 3.28073 14.526C3.28073 15.3388 3.9419 16 4.75461 16C5.56733 16 6.2286 15.3388 6.2286 14.526C6.2286 13.9462 5.89201 13.4437 5.4042 13.2031H11.0953C10.6075 13.4437 10.271 13.9462 10.271 14.526C10.271 15.3388 10.9322 16 11.7449 16C12.5576 16 13.2188 15.3388 13.2188 14.526C13.2188 13.9462 12.8823 13.4437 12.3945 13.2031H13.609C13.9083 13.2031 14.1508 12.9605 14.1508 12.6613C14.1508 12.3621 13.9083 12.1195 13.609 12.1195H4.11865C3.48302 12.1195 2.96579 11.6021 2.96579 10.9663V10.0855C3.30271 10.289 3.69726 10.4063 4.11865 10.4063H11.7449C12.9245 10.4063 14.1022 9.51779 14.426 8.38357L15.8248 3.48741C15.8715 3.32396 15.8388 3.14807 15.7364 3.01231C15.6341 2.87655 15.4738 2.79682 15.3039 2.79682H2.96579V2.23693C2.96579 1.00347 1.96253 0 0.729237 0C0.430032 0 0.1875 0.24264 0.1875 0.541845C0.1875 0.841051 0.430032 1.08364 0.729291 1.08364C1.36504 1.08364 1.88226 1.60102 1.88226 2.23698V10.9663Z" fill="#64BF7C"/>
    </g>
    <defs>
        <clipPath id="clip0_69_8048">
            <rect width="16" height="16" fill="white"/>
        </clipPath>
    </defs>
</svg>
