<svg width="12" height="12" viewBox="0 0 12 12" fill="none" xmlns="http://www.w3.org/2000/svg">
<path d="M12 1.24688L10.8 0.046875L6 4.84688L1.2 0.046875L0 1.24688L4.8 6.04688L0 10.8469L1.2 12.0469L6 7.24688L10.8 12.0469L12 10.8469L7.2 6.04688L12 1.24688Z" fill="#B0B9C2"/>
</svg>
