<svg width="16" height="14" viewBox="0 0 16 14" fill="none" xmlns="http://www.w3.org/2000/svg">
<path d="M15.7321 4.50276C16.0893 4.28368 16.0893 3.92516 15.7321 3.70603L8.64951 0.164313C8.29227 -0.054771 7.70769 -0.054771 7.35045 0.164313L0.26793 3.70603C-0.08931 3.92512 -0.08931 4.28364 0.26793 4.50276L7.35045 8.84655C7.70769 9.06563 8.29227 9.06563 8.64951 8.84655L15.7321 4.50276Z" fill="#186FDA"/>
<path d="M9.02692 9.62231C8.74215 9.79696 8.37745 9.89316 8 9.89316C7.62255 9.89316 7.25785 9.797 6.97307 9.62231L2.32404 6.77102C2.32389 6.77093 2.32393 6.77095 2.32378 6.77086C2.31907 6.76799 1.90418 6.51697 1.90418 7.09636V9.9437C1.90418 11.4436 4.63333 13.0606 7.99988 13.0606C11.3664 13.0606 14.0956 11.4437 14.0956 9.9437V6.93583C14.0956 6.64075 13.9768 6.6228 13.8892 6.64975C13.8232 6.67004 13.7677 6.71475 13.7089 6.75086L9.02692 9.62231Z" fill="#186FDA"/>
<path d="M15.4389 6.12927C15.4393 6.13902 15.4391 6.14879 15.4391 6.15856V10.9413C15.4391 11.0019 15.4884 11.0305 15.5134 11.045L15.5149 11.0459C15.7613 11.1895 15.9271 11.456 15.9271 11.7617C15.9271 12.2195 15.556 12.5906 15.0983 12.5906C14.6405 12.5906 14.2695 12.2195 14.2695 11.7617C14.2695 11.4572 14.4341 11.1915 14.679 11.0475L14.681 11.0463C14.707 11.031 14.7574 11.0015 14.7574 10.9413V6.70018C14.7574 6.62349 14.7501 6.54636 14.7585 6.47014C14.7657 6.40541 14.7865 6.32829 14.841 6.28094C14.9344 6.19969 15.1995 6.05191 15.3077 5.99172C15.4214 5.92842 15.4368 6.08024 15.4389 6.12927Z" fill="#186FDA"/>
</svg>
