<svg width="32" height="32" viewBox="0 0 32 32" fill="none" xmlns="http://www.w3.org/2000/svg">
<path d="M16 0C7.2 0 0 7.2 0 16C0 24.8 7.2 32 16 32C24.8 32 32 24.8 32 16C32 7.2 24.8 0 16 0ZM20.2 10.7H18.7C17.5 10.7 17.3 11.3 17.3 12.1V13.9H20.1L19.7 16.7H17.3V24H14.4V16.7H11.9V13.9H14.4V11.8C14.3 9.3 15.8 8 18 8C19 8 19.9 8.1 20.2 8.1V10.7Z" fill="#B0B9C2"/>
</svg>
