<svg width="12" height="16" viewBox="0 0 12 16" fill="none" xmlns="http://www.w3.org/2000/svg">
<path fill-rule="evenodd" clip-rule="evenodd" d="M10.8622 0.00365667C8.29707 0.229722 6.40423 1.51007 5.3008 3.36101C4.56131 4.28803 3.08412 7.11824 2.5469 8.59982C1.5728 10.4422 0.723374 12.6343 0.0586286 14.6105C-0.347719 15.8189 1.47684 16.6073 1.88551 15.3934C2.16047 14.5757 2.46707 13.7213 2.80104 12.8699C3.11525 12.0689 4.21401 12.0663 4.57421 12.8477C4.95674 13.6775 5.34802 14.5033 5.75474 15.3218C6.3243 16.4697 8.03816 15.463 7.47066 14.319C6.72197 12.8126 6.02597 11.2825 5.34053 9.74704C5.32657 9.71576 5.32425 9.68054 5.33533 9.64814C5.34264 9.62676 5.36543 9.61465 5.38743 9.61979C5.49223 9.64426 5.60649 9.64956 5.73095 9.6259C6.34729 9.51019 6.96364 9.39465 7.58013 9.27908L8.91008 9.0297C9.36299 8.9446 9.53655 8.44902 9.46516 8.05224C9.26816 6.95854 8.67923 6.171 7.92983 5.44262C7.80079 5.3172 7.71042 5.15799 7.62118 5.00173C7.5564 4.88828 7.47284 4.77791 7.37582 4.66961C7.03963 4.29432 6.91503 3.74654 7.24853 3.36885C8.19286 2.29936 9.53284 1.70472 11.1927 1.55844C12.2113 1.4692 11.8719 -0.0850622 10.8622 0.00365667ZM6.69084 7.1316C6.85116 6.93075 7.15731 6.91865 7.31506 7.12153C7.32604 7.13564 7.33691 7.14982 7.34767 7.16408C7.52211 7.39512 7.37079 7.70704 7.08625 7.76038C6.71506 7.82998 6.45525 7.42675 6.69084 7.1316Z" fill="#FF552D"/>
<path d="M10.5598 4.04412C10.5598 4.79766 9.94893 5.40852 9.19538 5.40852C8.44184 5.40852 7.83098 4.79766 7.83098 4.04412C7.83098 3.29057 8.44184 2.67971 9.19538 2.67971C9.94893 2.67971 10.5598 3.29057 10.5598 4.04412Z" fill="#FF552D"/>
</svg>
